data23_hi:data23_hi.00462576.physics_HardProbes.merge.AOD.f1399_m2209
data23_hi:data23_hi.00462580.physics_HardProbes.merge.AOD.f1403_m2209
data23_hi:data23_hi.00462588.physics_HardProbes.merge.AOD.f1403_m2209
data23_hi:data23_hi.00462617.physics_HardProbes.merge.AOD.f1403_m2209
data23_hi:data23_hi.00462667.physics_HardProbes.merge.AOD.f1403_m2212
data23_hi:data23_hi.00462677.physics_HardProbes.merge.AOD.f1403_m2212
data23_hi:data23_hi.00462705.physics_HardProbes.merge.AOD.f1403_m2212
data23_hi:data23_hi.00462717.physics_HardProbes.merge.AOD.f1403_m2212
data23_hi:data23_hi.00462759.physics_HardProbes.merge.AOD.f1406_m2212
data23_hi:data23_hi.00462763.physics_HardProbes.merge.AOD.f1406_m2212
data23_hi:data23_hi.00462767.physics_HardProbes.merge.AOD.f1406_m2212
data23_hi:data23_hi.00462777.physics_HardProbes.merge.AOD.f1406_m2212
data23_hi:data23_hi.00462809.physics_HardProbes.merge.AOD.f1406_m2212
data23_hi:data23_hi.00462814.physics_HardProbes.merge.AOD.f1406_m2212
data23_hi:data23_hi.00462964.physics_HardProbes.merge.AOD.f1406_m2212
data23_hi:data23_hi.00462969.physics_HardProbes.merge.AOD.f1406_m2212
data23_hi:data23_hi.00462995.physics_HardProbes.merge.AOD.f1408_m2212
data23_hi:data23_hi.00463004.physics_HardProbes.merge.AOD.f1408_m2212
data23_hi:data23_hi.00463017.physics_HardProbes.merge.AOD.f1408_m2212
data23_hi:data23_hi.00463021.physics_HardProbes.merge.AOD.f1408_m2212
data23_hi:data23_hi.00463040.physics_HardProbes.merge.AOD.f1408_m2212
data23_hi:data23_hi.00463046.physics_HardProbes.merge.AOD.f1408_m2212
data23_hi:data23_hi.00463120.physics_HardProbes.merge.AOD.f1408_m2212
data23_hi:data23_hi.00463124.physics_HardProbes.merge.AOD.f1408_m2212
data23_hi:data23_hi.00463155.physics_HardProbes.merge.AOD.f1408_m2212
data23_hi:data23_hi.00463185.physics_HardProbes.merge.AOD.f1408_m2212
data23_hi:data23_hi.00463189.physics_HardProbes.merge.AOD.f1408_m2212
data23_hi:data23_hi.00463216.physics_HardProbes.merge.AOD.f1408_m2212
data23_hi:data23_hi.00463222.physics_HardProbes.merge.AOD.f1408_m2212
data23_hi:data23_hi.00463255.physics_HardProbes.merge.AOD.f1408_m2212
data23_hi:data23_hi.00463263.physics_HardProbes.merge.AOD.f1408_m2212
data23_hi:data23_hi.00463308.physics_HardProbes.merge.AOD.f1408_m2212
data23_hi:data23_hi.00463315.physics_HardProbes.merge.AOD.f1408_m2212
data23_hi:data23_hi.00463364.physics_HardProbes.merge.AOD.f1408_m2212
data23_hi:data23_hi.00463380.physics_HardProbes.merge.AOD.f1408_m2212
data23_hi:data23_hi.00463389.physics_HardProbes.merge.AOD.f1408_m2212
data23_hi:data23_hi.00463414.physics_HardProbes.merge.AOD.f1408_m2212
data23_hi:data23_hi.00463427.physics_HardProbes.merge.AOD.f1408_m2212
