The system is: Linux - 5.14.0-362.13.1.el9_3.x86_64 - x86_64
Compiling the Fortran compiler identification source file "CMakeFortranCompilerId.F" succeeded.
Compiler: /cvmfs/sft.cern.ch/lcg/releases/gcc/11.2.0-8a51a/x86_64-centos7/bin/gfortran 
Build flags: 
Id flags: -v 

The output was:
0
Driving: /cvmfs/sft.cern.ch/lcg/releases/gcc/11.2.0-8a51a/x86_64-centos7/bin/gfortran -v CMakeFortranCompilerId.F -l gfortran -l m -shared-libgcc
Using built-in specs.
COLLECT_GCC=/cvmfs/sft.cern.ch/lcg/releases/gcc/11.2.0-8a51a/x86_64-centos7/bin/gfortran
COLLECT_LTO_WRAPPER=/cvmfs/sft.cern.ch/lcg/releases/gcc/11.2.0-8a51a/x86_64-centos7/bin/../libexec/gcc/x86_64-pc-linux-gnu/11.2.0/lto-wrapper
Target: x86_64-pc-linux-gnu
Configured with: /workspace/build/contrib/gcc-11.2.0/src/gcc/11.2.0/configure --prefix=/workspace/lcgcmake-install/gcc/11.2.0/x86_64-centos7 --disable-nls --with-system-zlib --disable-multilib --enable-languages=all --with-gnu-ld --with-gnu-as --enable-__cxa_atexit --disable-libunwind-exceptions --enable-gnu-unique-object --enable-plugin --with-linker-hash-style=gnu --enable-linker-build-id --enable-libstdcxx-time=rt --enable-shared --disable-libgcj
Thread model: posix
Supported LTO compression algorithms: zlib
gcc version 11.2.0 (GCC) 
COLLECT_GCC_OPTIONS='-v' '-shared-libgcc' '-mtune=generic' '-march=x86-64' '-dumpdir' 'a-'
 /cvmfs/sft.cern.ch/lcg/releases/gcc/11.2.0-8a51a/x86_64-centos7/bin/../libexec/gcc/x86_64-pc-linux-gnu/11.2.0/f951 CMakeFortranCompilerId.F -ffixed-form -cpp=/tmp/adimri/ccwcaz18.f90 -quiet -v -iprefix /cvmfs/sft.cern.ch/lcg/releases/gcc/11.2.0-8a51a/x86_64-centos7/bin/../lib/gcc/x86_64-pc-linux-gnu/11.2.0/ -isystem /cvmfs/sft.cern.ch/lcg/releases/gcc/11.2.0-8a51a/x86_64-centos7/include CMakeFortranCompilerId.F -quiet -dumpdir a- -dumpbase CMakeFortranCompilerId.F -dumpbase-ext .F -mtune=generic -march=x86-64 -version -fintrinsic-modules-path /cvmfs/sft.cern.ch/lcg/releases/gcc/11.2.0-8a51a/x86_64-centos7/bin/../lib/gcc/x86_64-pc-linux-gnu/11.2.0/finclude -o /tmp/adimri/ccgKkejz.s
GNU Fortran (GCC) version 11.2.0 (x86_64-pc-linux-gnu)
	compiled by GNU C version 11.2.0, GMP version 6.1.0, MPFR version 3.1.6, MPC version 1.0.3, isl version isl-0.18-GMP

GGC heuristics: --param ggc-min-expand=100 --param ggc-min-heapsize=131072
ignoring nonexistent directory "/cvmfs/sft.cern.ch/lcg/releases/gcc/11.2.0-8a51a/x86_64-centos7/bin/../lib/gcc/x86_64-pc-linux-gnu/11.2.0/../../../../x86_64-pc-linux-gnu/include"
ignoring duplicate directory "/cvmfs/sft.cern.ch/lcg/releases/gcc/11.2.0-8a51a/x86_64-centos7/bin/../lib/gcc/../../lib/gcc/x86_64-pc-linux-gnu/11.2.0/include"
ignoring duplicate directory "/cvmfs/sft.cern.ch/lcg/releases/gcc/11.2.0-8a51a/x86_64-centos7/bin/../lib/gcc/../../lib/gcc/x86_64-pc-linux-gnu/11.2.0/include-fixed"
ignoring nonexistent directory "/cvmfs/sft.cern.ch/lcg/releases/gcc/11.2.0-8a51a/x86_64-centos7/bin/../lib/gcc/../../lib/gcc/x86_64-pc-linux-gnu/11.2.0/../../../../x86_64-pc-linux-gnu/include"
ignoring duplicate directory "/cvmfs/sft.cern.ch/lcg/releases/gcc/11.2.0-8a51a/x86_64-centos7/include"
  as it is a non-system directory that duplicates a system directory
#include "..." search starts here:
#include <...> search starts here:
 /cvmfs/sft.cern.ch/lcg/releases/gcc/11.2.0-8a51a/x86_64-centos7/bin/../lib/gcc/x86_64-pc-linux-gnu/11.2.0/finclude
 /cvmfs/sft.cern.ch/lcg/releases/gcc/11.2.0-8a51a/x86_64-centos7/bin/../lib/gcc/x86_64-pc-linux-gnu/11.2.0/include
 /cvmfs/sft.cern.ch/lcg/releases/gcc/11.2.0-8a51a/x86_64-centos7/bin/../lib/gcc/x86_64-pc-linux-gnu/11.2.0/include-fixed
 /usr/local/include
 /cvmfs/sft.cern.ch/lcg/releases/gcc/11.2.0-8a51a/x86_64-centos7/bin/../lib/gcc/../../include
 /usr/include
End of search list.
GNU Fortran2008 (GCC) version 11.2.0 (x86_64-pc-linux-gnu)
	compiled by GNU C version 11.2.0, GMP version 6.1.0, MPFR version 3.1.6, MPC version 1.0.3, isl version isl-0.18-GMP

GGC heuristics: --param ggc-min-expand=100 --param ggc-min-heapsize=131072
COLLECT_GCC_OPTIONS='-v' '-shared-libgcc' '-mtune=generic' '-march=x86-64' '-dumpdir' 'a-'
 as -v --64 -o /tmp/adimri/ccI4kfu0.o /tmp/adimri/ccgKkejz.s
GNU assembler version 2.37 (x86_64-pc-linux-gnu) using BFD version (GNU Binutils) 2.37
Reading specs from /cvmfs/sft.cern.ch/lcg/releases/gcc/11.2.0-8a51a/x86_64-centos7/bin/../lib/gcc/x86_64-pc-linux-gnu/11.2.0/../../../../lib64/libgfortran.spec
rename spec lib to liborig
COLLECT_GCC_OPTIONS='-v' '-shared-libgcc' '-mtune=generic' '-march=x86-64' '-dumpdir' 'a-'
COMPILER_PATH=/cvmfs/sft.cern.ch/lcg/releases/gcc/11.2.0-8a51a/x86_64-centos7/bin/../libexec/gcc/x86_64-pc-linux-gnu/11.2.0/:/cvmfs/sft.cern.ch/lcg/releases/gcc/11.2.0-8a51a/x86_64-centos7/bin/../libexec/gcc/:/cvmfs/sft.cern.ch/lcg/releases/gcc/11.2.0-8a51a/x86_64-centos7/
LIBRARY_PATH=/cvmfs/sft.cern.ch/lcg/releases/gcc/11.2.0-8a51a/x86_64-centos7/bin/../lib/gcc/x86_64-pc-linux-gnu/11.2.0/:/cvmfs/sft.cern.ch/lcg/releases/gcc/11.2.0-8a51a/x86_64-centos7/bin/../lib/gcc/:/cvmfs/sft.cern.ch/lcg/releases/gcc/11.2.0-8a51a/x86_64-centos7/bin/../lib/gcc/x86_64-pc-linux-gnu/11.2.0/../../../../lib64/:/lib/../lib64/:/usr/lib/../lib64/:/cvmfs/sft.cern.ch/lcg/releases/gcc/11.2.0-8a51a/x86_64-centos7/bin/../lib/gcc/x86_64-pc-linux-gnu/11.2.0/../../../:/lib/:/usr/lib/
COLLECT_GCC_OPTIONS='-v' '-shared-libgcc' '-mtune=generic' '-march=x86-64' '-dumpdir' 'a.'
 /cvmfs/sft.cern.ch/lcg/releases/gcc/11.2.0-8a51a/x86_64-centos7/bin/../libexec/gcc/x86_64-pc-linux-gnu/11.2.0/collect2 -plugin /cvmfs/sft.cern.ch/lcg/releases/gcc/11.2.0-8a51a/x86_64-centos7/bin/../libexec/gcc/x86_64-pc-linux-gnu/11.2.0/liblto_plugin.so -plugin-opt=/cvmfs/sft.cern.ch/lcg/releases/gcc/11.2.0-8a51a/x86_64-centos7/bin/../libexec/gcc/x86_64-pc-linux-gnu/11.2.0/lto-wrapper -plugin-opt=-fresolution=/tmp/adimri/ccdWztKr.res -plugin-opt=-pass-through=-lgcc_s -plugin-opt=-pass-through=-lgcc -plugin-opt=-pass-through=-lquadmath -plugin-opt=-pass-through=-lm -plugin-opt=-pass-through=-lgcc_s -plugin-opt=-pass-through=-lgcc -plugin-opt=-pass-through=-lc -plugin-opt=-pass-through=-lgcc_s -plugin-opt=-pass-through=-lgcc --build-id --eh-frame-hdr --hash-style=gnu -m elf_x86_64 -dynamic-linker /lib64/ld-linux-x86-64.so.2 /lib/../lib64/crt1.o /lib/../lib64/crti.o /cvmfs/sft.cern.ch/lcg/releases/gcc/11.2.0-8a51a/x86_64-centos7/bin/../lib/gcc/x86_64-pc-linux-gnu/11.2.0/crtbegin.o -L/cvmfs/sft.cern.ch/lcg/releases/gcc/11.2.0-8a51a/x86_64-centos7/bin/../lib/gcc/x86_64-pc-linux-gnu/11.2.0 -L/cvmfs/sft.cern.ch/lcg/releases/gcc/11.2.0-8a51a/x86_64-centos7/bin/../lib/gcc -L/cvmfs/sft.cern.ch/lcg/releases/gcc/11.2.0-8a51a/x86_64-centos7/bin/../lib/gcc/x86_64-pc-linux-gnu/11.2.0/../../../../lib64 -L/lib/../lib64 -L/usr/lib/../lib64 -L/cvmfs/sft.cern.ch/lcg/releases/gcc/11.2.0-8a51a/x86_64-centos7/bin/../lib/gcc/x86_64-pc-linux-gnu/11.2.0/../../.. /tmp/adimri/ccI4kfu0.o -lgfortran -lm -lgcc_s -lgcc -lquadmath -lm -lgcc_s -lgcc -lc -lgcc_s -lgcc /cvmfs/sft.cern.ch/lcg/releases/gcc/11.2.0-8a51a/x86_64-centos7/bin/../lib/gcc/x86_64-pc-linux-gnu/11.2.0/crtend.o /lib/../lib64/crtn.o
COLLECT_GCC_OPTIONS='-v' '-shared-libgcc' '-mtune=generic' '-march=x86-64' '-dumpdir' 'a.'


Compilation of the Fortran compiler identification source "CMakeFortranCompilerId.F" produced "a.out"

The Fortran compiler identification is GNU, found in "/home/adimri/Egamma_Photon_Trigger_Histograms/build/CMakeFiles/CheckFortran/CMakeFiles/3.24.3/CompilerIdFortran/a.out"

Detecting Fortran compiler ABI info compiled with the following output:
Change Dir: /home/adimri/Egamma_Photon_Trigger_Histograms/build/CMakeFiles/CheckFortran/CMakeFiles/CMakeTmp

Run Build Command(s):/usr/bin/gmake -f Makefile cmTC_5bb81/fast && /usr/bin/gmake  -f CMakeFiles/cmTC_5bb81.dir/build.make CMakeFiles/cmTC_5bb81.dir/build
gmake[1]: Entering directory `/home/adimri/Egamma_Photon_Trigger_Histograms/build/CMakeFiles/CheckFortran/CMakeFiles/CMakeTmp'
Building Fortran object CMakeFiles/cmTC_5bb81.dir/CMakeFortranCompilerABI.F90.o
/cvmfs/sft.cern.ch/lcg/releases/gcc/11.2.0-8a51a/x86_64-centos7/bin/gfortran   -v -c /cvmfs/atlas.cern.ch/repo/ATLASLocalRootBase/x86_64/Cmake/3.24.3/Linux-x86_64/share/cmake-3.24/Modules/CMakeFortranCompilerABI.F90 -o CMakeFiles/cmTC_5bb81.dir/CMakeFortranCompilerABI.F90.o
Using built-in specs.
COLLECT_GCC=/cvmfs/sft.cern.ch/lcg/releases/gcc/11.2.0-8a51a/x86_64-centos7/bin/gfortran
Target: x86_64-pc-linux-gnu
Configured with: /workspace/build/contrib/gcc-11.2.0/src/gcc/11.2.0/configure --prefix=/workspace/lcgcmake-install/gcc/11.2.0/x86_64-centos7 --disable-nls --with-system-zlib --disable-multilib --enable-languages=all --with-gnu-ld --with-gnu-as --enable-__cxa_atexit --disable-libunwind-exceptions --enable-gnu-unique-object --enable-plugin --with-linker-hash-style=gnu --enable-linker-build-id --enable-libstdcxx-time=rt --enable-shared --disable-libgcj
Thread model: posix
Supported LTO compression algorithms: zlib
gcc version 11.2.0 (GCC) 
COLLECT_GCC_OPTIONS='-v' '-c' '-o' 'CMakeFiles/cmTC_5bb81.dir/CMakeFortranCompilerABI.F90.o' '-mtune=generic' '-march=x86-64' '-dumpdir' 'CMakeFiles/cmTC_5bb81.dir/'
 /cvmfs/sft.cern.ch/lcg/releases/gcc/11.2.0-8a51a/x86_64-centos7/bin/../libexec/gcc/x86_64-pc-linux-gnu/11.2.0/f951 /cvmfs/atlas.cern.ch/repo/ATLASLocalRootBase/x86_64/Cmake/3.24.3/Linux-x86_64/share/cmake-3.24/Modules/CMakeFortranCompilerABI.F90 -cpp=/tmp/adimri/cchvvwsG.f90 -quiet -v -iprefix /cvmfs/sft.cern.ch/lcg/releases/gcc/11.2.0-8a51a/x86_64-centos7/bin/../lib/gcc/x86_64-pc-linux-gnu/11.2.0/ -isystem /cvmfs/sft.cern.ch/lcg/releases/gcc/11.2.0-8a51a/x86_64-centos7/include /cvmfs/atlas.cern.ch/repo/ATLASLocalRootBase/x86_64/Cmake/3.24.3/Linux-x86_64/share/cmake-3.24/Modules/CMakeFortranCompilerABI.F90 -quiet -dumpdir CMakeFiles/cmTC_5bb81.dir/ -dumpbase CMakeFortranCompilerABI.F90.F90 -dumpbase-ext .F90 -mtune=generic -march=x86-64 -version -fintrinsic-modules-path /cvmfs/sft.cern.ch/lcg/releases/gcc/11.2.0-8a51a/x86_64-centos7/bin/../lib/gcc/x86_64-pc-linux-gnu/11.2.0/finclude -o /tmp/adimri/cchinXaa.s
GNU Fortran (GCC) version 11.2.0 (x86_64-pc-linux-gnu)
	compiled by GNU C version 11.2.0, GMP version 6.1.0, MPFR version 3.1.6, MPC version 1.0.3, isl version isl-0.18-GMP

GGC heuristics: --param ggc-min-expand=100 --param ggc-min-heapsize=131072
ignoring nonexistent directory "/cvmfs/sft.cern.ch/lcg/releases/gcc/11.2.0-8a51a/x86_64-centos7/bin/../lib/gcc/x86_64-pc-linux-gnu/11.2.0/../../../../x86_64-pc-linux-gnu/include"
ignoring duplicate directory "/cvmfs/sft.cern.ch/lcg/releases/gcc/11.2.0-8a51a/x86_64-centos7/bin/../lib/gcc/../../lib/gcc/x86_64-pc-linux-gnu/11.2.0/include"
ignoring duplicate directory "/cvmfs/sft.cern.ch/lcg/releases/gcc/11.2.0-8a51a/x86_64-centos7/bin/../lib/gcc/../../lib/gcc/x86_64-pc-linux-gnu/11.2.0/include-fixed"
ignoring nonexistent directory "/cvmfs/sft.cern.ch/lcg/releases/gcc/11.2.0-8a51a/x86_64-centos7/bin/../lib/gcc/../../lib/gcc/x86_64-pc-linux-gnu/11.2.0/../../../../x86_64-pc-linux-gnu/include"
ignoring duplicate directory "/cvmfs/sft.cern.ch/lcg/releases/gcc/11.2.0-8a51a/x86_64-centos7/include"
  as it is a non-system directory that duplicates a system directory
#include "..." search starts here:
#include <...> search starts here:
 /cvmfs/sft.cern.ch/lcg/releases/gcc/11.2.0-8a51a/x86_64-centos7/bin/../lib/gcc/x86_64-pc-linux-gnu/11.2.0/finclude
 /cvmfs/sft.cern.ch/lcg/releases/gcc/11.2.0-8a51a/x86_64-centos7/bin/../lib/gcc/x86_64-pc-linux-gnu/11.2.0/include
 /cvmfs/sft.cern.ch/lcg/releases/gcc/11.2.0-8a51a/x86_64-centos7/bin/../lib/gcc/x86_64-pc-linux-gnu/11.2.0/include-fixed
 /usr/local/include
 /cvmfs/sft.cern.ch/lcg/releases/gcc/11.2.0-8a51a/x86_64-centos7/bin/../lib/gcc/../../include
 /usr/include
End of search list.
GNU Fortran2008 (GCC) version 11.2.0 (x86_64-pc-linux-gnu)
	compiled by GNU C version 11.2.0, GMP version 6.1.0, MPFR version 3.1.6, MPC version 1.0.3, isl version isl-0.18-GMP

GGC heuristics: --param ggc-min-expand=100 --param ggc-min-heapsize=131072
COLLECT_GCC_OPTIONS='-v' '-c' '-o' 'CMakeFiles/cmTC_5bb81.dir/CMakeFortranCompilerABI.F90.o' '-mtune=generic' '-march=x86-64' '-dumpdir' 'CMakeFiles/cmTC_5bb81.dir/'
 as -v --64 -o CMakeFiles/cmTC_5bb81.dir/CMakeFortranCompilerABI.F90.o /tmp/adimri/cchinXaa.s
GNU assembler version 2.37 (x86_64-pc-linux-gnu) using BFD version (GNU Binutils) 2.37
COMPILER_PATH=/cvmfs/sft.cern.ch/lcg/releases/gcc/11.2.0-8a51a/x86_64-centos7/bin/../libexec/gcc/x86_64-pc-linux-gnu/11.2.0/:/cvmfs/sft.cern.ch/lcg/releases/gcc/11.2.0-8a51a/x86_64-centos7/bin/../libexec/gcc/:/cvmfs/sft.cern.ch/lcg/releases/gcc/11.2.0-8a51a/x86_64-centos7/
LIBRARY_PATH=/cvmfs/sft.cern.ch/lcg/releases/gcc/11.2.0-8a51a/x86_64-centos7/bin/../lib/gcc/x86_64-pc-linux-gnu/11.2.0/:/cvmfs/sft.cern.ch/lcg/releases/gcc/11.2.0-8a51a/x86_64-centos7/bin/../lib/gcc/:/cvmfs/sft.cern.ch/lcg/releases/gcc/11.2.0-8a51a/x86_64-centos7/bin/../lib/gcc/x86_64-pc-linux-gnu/11.2.0/../../../../lib64/:/lib/../lib64/:/usr/lib/../lib64/:/cvmfs/sft.cern.ch/lcg/releases/gcc/11.2.0-8a51a/x86_64-centos7/bin/../lib/gcc/x86_64-pc-linux-gnu/11.2.0/../../../:/lib/:/usr/lib/
COLLECT_GCC_OPTIONS='-v' '-c' '-o' 'CMakeFiles/cmTC_5bb81.dir/CMakeFortranCompilerABI.F90.o' '-mtune=generic' '-march=x86-64' '-dumpdir' 'CMakeFiles/cmTC_5bb81.dir/CMakeFortranCompilerABI.F90.'
Linking Fortran executable cmTC_5bb81
/cvmfs/atlas.cern.ch/repo/ATLASLocalRootBase/x86_64/Cmake/3.24.3/Linux-x86_64/bin/cmake -E cmake_link_script CMakeFiles/cmTC_5bb81.dir/link.txt --verbose=1
/cvmfs/sft.cern.ch/lcg/releases/gcc/11.2.0-8a51a/x86_64-centos7/bin/gfortran  -v CMakeFiles/cmTC_5bb81.dir/CMakeFortranCompilerABI.F90.o -o cmTC_5bb81 
Driving: /cvmfs/sft.cern.ch/lcg/releases/gcc/11.2.0-8a51a/x86_64-centos7/bin/gfortran -v CMakeFiles/cmTC_5bb81.dir/CMakeFortranCompilerABI.F90.o -o cmTC_5bb81 -l gfortran -l m -shared-libgcc
Using built-in specs.
COLLECT_GCC=/cvmfs/sft.cern.ch/lcg/releases/gcc/11.2.0-8a51a/x86_64-centos7/bin/gfortran
COLLECT_LTO_WRAPPER=/cvmfs/sft.cern.ch/lcg/releases/gcc/11.2.0-8a51a/x86_64-centos7/bin/../libexec/gcc/x86_64-pc-linux-gnu/11.2.0/lto-wrapper
Target: x86_64-pc-linux-gnu
Configured with: /workspace/build/contrib/gcc-11.2.0/src/gcc/11.2.0/configure --prefix=/workspace/lcgcmake-install/gcc/11.2.0/x86_64-centos7 --disable-nls --with-system-zlib --disable-multilib --enable-languages=all --with-gnu-ld --with-gnu-as --enable-__cxa_atexit --disable-libunwind-exceptions --enable-gnu-unique-object --enable-plugin --with-linker-hash-style=gnu --enable-linker-build-id --enable-libstdcxx-time=rt --enable-shared --disable-libgcj
Thread model: posix
Supported LTO compression algorithms: zlib
gcc version 11.2.0 (GCC) 
Reading specs from /cvmfs/sft.cern.ch/lcg/releases/gcc/11.2.0-8a51a/x86_64-centos7/bin/../lib/gcc/x86_64-pc-linux-gnu/11.2.0/../../../../lib64/libgfortran.spec
rename spec lib to liborig
COLLECT_GCC_OPTIONS='-v' '-o' 'cmTC_5bb81' '-shared-libgcc' '-mtune=generic' '-march=x86-64' '-dumpdir' 'cmTC_5bb81-'
COMPILER_PATH=/cvmfs/sft.cern.ch/lcg/releases/gcc/11.2.0-8a51a/x86_64-centos7/bin/../libexec/gcc/x86_64-pc-linux-gnu/11.2.0/:/cvmfs/sft.cern.ch/lcg/releases/gcc/11.2.0-8a51a/x86_64-centos7/bin/../libexec/gcc/:/cvmfs/sft.cern.ch/lcg/releases/gcc/11.2.0-8a51a/x86_64-centos7/
LIBRARY_PATH=/cvmfs/sft.cern.ch/lcg/releases/gcc/11.2.0-8a51a/x86_64-centos7/bin/../lib/gcc/x86_64-pc-linux-gnu/11.2.0/:/cvmfs/sft.cern.ch/lcg/releases/gcc/11.2.0-8a51a/x86_64-centos7/bin/../lib/gcc/:/cvmfs/sft.cern.ch/lcg/releases/gcc/11.2.0-8a51a/x86_64-centos7/bin/../lib/gcc/x86_64-pc-linux-gnu/11.2.0/../../../../lib64/:/lib/../lib64/:/usr/lib/../lib64/:/cvmfs/sft.cern.ch/lcg/releases/gcc/11.2.0-8a51a/x86_64-centos7/bin/../lib/gcc/x86_64-pc-linux-gnu/11.2.0/../../../:/lib/:/usr/lib/
COLLECT_GCC_OPTIONS='-v' '-o' 'cmTC_5bb81' '-shared-libgcc' '-mtune=generic' '-march=x86-64' '-dumpdir' 'cmTC_5bb81.'
 /cvmfs/sft.cern.ch/lcg/releases/gcc/11.2.0-8a51a/x86_64-centos7/bin/../libexec/gcc/x86_64-pc-linux-gnu/11.2.0/collect2 -plugin /cvmfs/sft.cern.ch/lcg/releases/gcc/11.2.0-8a51a/x86_64-centos7/bin/../libexec/gcc/x86_64-pc-linux-gnu/11.2.0/liblto_plugin.so -plugin-opt=/cvmfs/sft.cern.ch/lcg/releases/gcc/11.2.0-8a51a/x86_64-centos7/bin/../libexec/gcc/x86_64-pc-linux-gnu/11.2.0/lto-wrapper -plugin-opt=-fresolution=/tmp/adimri/ccSezi9J.res -plugin-opt=-pass-through=-lgcc_s -plugin-opt=-pass-through=-lgcc -plugin-opt=-pass-through=-lquadmath -plugin-opt=-pass-through=-lm -plugin-opt=-pass-through=-lgcc_s -plugin-opt=-pass-through=-lgcc -plugin-opt=-pass-through=-lc -plugin-opt=-pass-through=-lgcc_s -plugin-opt=-pass-through=-lgcc --build-id --eh-frame-hdr --hash-style=gnu -m elf_x86_64 -dynamic-linker /lib64/ld-linux-x86-64.so.2 -o cmTC_5bb81 /lib/../lib64/crt1.o /lib/../lib64/crti.o /cvmfs/sft.cern.ch/lcg/releases/gcc/11.2.0-8a51a/x86_64-centos7/bin/../lib/gcc/x86_64-pc-linux-gnu/11.2.0/crtbegin.o -L/cvmfs/sft.cern.ch/lcg/releases/gcc/11.2.0-8a51a/x86_64-centos7/bin/../lib/gcc/x86_64-pc-linux-gnu/11.2.0 -L/cvmfs/sft.cern.ch/lcg/releases/gcc/11.2.0-8a51a/x86_64-centos7/bin/../lib/gcc -L/cvmfs/sft.cern.ch/lcg/releases/gcc/11.2.0-8a51a/x86_64-centos7/bin/../lib/gcc/x86_64-pc-linux-gnu/11.2.0/../../../../lib64 -L/lib/../lib64 -L/usr/lib/../lib64 -L/cvmfs/sft.cern.ch/lcg/releases/gcc/11.2.0-8a51a/x86_64-centos7/bin/../lib/gcc/x86_64-pc-linux-gnu/11.2.0/../../.. CMakeFiles/cmTC_5bb81.dir/CMakeFortranCompilerABI.F90.o -lgfortran -lm -lgcc_s -lgcc -lquadmath -lm -lgcc_s -lgcc -lc -lgcc_s -lgcc /cvmfs/sft.cern.ch/lcg/releases/gcc/11.2.0-8a51a/x86_64-centos7/bin/../lib/gcc/x86_64-pc-linux-gnu/11.2.0/crtend.o /lib/../lib64/crtn.o
COLLECT_GCC_OPTIONS='-v' '-o' 'cmTC_5bb81' '-shared-libgcc' '-mtune=generic' '-march=x86-64' '-dumpdir' 'cmTC_5bb81.'
gmake[1]: Leaving directory `/home/adimri/Egamma_Photon_Trigger_Histograms/build/CMakeFiles/CheckFortran/CMakeFiles/CMakeTmp'



Parsed Fortran implicit include dir info from above output: rv=done
  found start of include info
  found start of implicit include info
    add: [/cvmfs/sft.cern.ch/lcg/releases/gcc/11.2.0-8a51a/x86_64-centos7/bin/../lib/gcc/x86_64-pc-linux-gnu/11.2.0/finclude]
    add: [/cvmfs/sft.cern.ch/lcg/releases/gcc/11.2.0-8a51a/x86_64-centos7/bin/../lib/gcc/x86_64-pc-linux-gnu/11.2.0/include]
    add: [/cvmfs/sft.cern.ch/lcg/releases/gcc/11.2.0-8a51a/x86_64-centos7/bin/../lib/gcc/x86_64-pc-linux-gnu/11.2.0/include-fixed]
    add: [/usr/local/include]
    add: [/cvmfs/sft.cern.ch/lcg/releases/gcc/11.2.0-8a51a/x86_64-centos7/bin/../lib/gcc/../../include]
    add: [/usr/include]
  end of search list found
  collapse include dir [/cvmfs/sft.cern.ch/lcg/releases/gcc/11.2.0-8a51a/x86_64-centos7/bin/../lib/gcc/x86_64-pc-linux-gnu/11.2.0/finclude] ==> [/cvmfs/sft.cern.ch/lcg/releases/gcc/11.2.0-8a51a/x86_64-centos7/lib/gcc/x86_64-pc-linux-gnu/11.2.0/finclude]
  collapse include dir [/cvmfs/sft.cern.ch/lcg/releases/gcc/11.2.0-8a51a/x86_64-centos7/bin/../lib/gcc/x86_64-pc-linux-gnu/11.2.0/include] ==> [/cvmfs/sft.cern.ch/lcg/releases/gcc/11.2.0-8a51a/x86_64-centos7/lib/gcc/x86_64-pc-linux-gnu/11.2.0/include]
  collapse include dir [/cvmfs/sft.cern.ch/lcg/releases/gcc/11.2.0-8a51a/x86_64-centos7/bin/../lib/gcc/x86_64-pc-linux-gnu/11.2.0/include-fixed] ==> [/cvmfs/sft.cern.ch/lcg/releases/gcc/11.2.0-8a51a/x86_64-centos7/lib/gcc/x86_64-pc-linux-gnu/11.2.0/include-fixed]
  collapse include dir [/usr/local/include] ==> [/usr/local/include]
  collapse include dir [/cvmfs/sft.cern.ch/lcg/releases/gcc/11.2.0-8a51a/x86_64-centos7/bin/../lib/gcc/../../include] ==> [/cvmfs/sft.cern.ch/lcg/releases/gcc/11.2.0-8a51a/x86_64-centos7/include]
  collapse include dir [/usr/include] ==> [/usr/include]
  implicit include dirs: [/cvmfs/sft.cern.ch/lcg/releases/gcc/11.2.0-8a51a/x86_64-centos7/lib/gcc/x86_64-pc-linux-gnu/11.2.0/finclude;/cvmfs/sft.cern.ch/lcg/releases/gcc/11.2.0-8a51a/x86_64-centos7/lib/gcc/x86_64-pc-linux-gnu/11.2.0/include;/cvmfs/sft.cern.ch/lcg/releases/gcc/11.2.0-8a51a/x86_64-centos7/lib/gcc/x86_64-pc-linux-gnu/11.2.0/include-fixed;/usr/local/include;/cvmfs/sft.cern.ch/lcg/releases/gcc/11.2.0-8a51a/x86_64-centos7/include;/usr/include]


Parsed Fortran implicit link information from above output:
  link line regex: [^( *|.*[/\])(ld|CMAKE_LINK_STARTFILE-NOTFOUND|([^/\]+-)?ld|collect2)[^/\]*( |$)]
  ignore line: [Change Dir: /home/adimri/Egamma_Photon_Trigger_Histograms/build/CMakeFiles/CheckFortran/CMakeFiles/CMakeTmp]
  ignore line: []
  ignore line: [Run Build Command(s):/usr/bin/gmake -f Makefile cmTC_5bb81/fast && /usr/bin/gmake  -f CMakeFiles/cmTC_5bb81.dir/build.make CMakeFiles/cmTC_5bb81.dir/build]
  ignore line: [gmake[1]: Entering directory `/home/adimri/Egamma_Photon_Trigger_Histograms/build/CMakeFiles/CheckFortran/CMakeFiles/CMakeTmp']
  ignore line: [Building Fortran object CMakeFiles/cmTC_5bb81.dir/CMakeFortranCompilerABI.F90.o]
  ignore line: [/cvmfs/sft.cern.ch/lcg/releases/gcc/11.2.0-8a51a/x86_64-centos7/bin/gfortran   -v -c /cvmfs/atlas.cern.ch/repo/ATLASLocalRootBase/x86_64/Cmake/3.24.3/Linux-x86_64/share/cmake-3.24/Modules/CMakeFortranCompilerABI.F90 -o CMakeFiles/cmTC_5bb81.dir/CMakeFortranCompilerABI.F90.o]
  ignore line: [Using built-in specs.]
  ignore line: [COLLECT_GCC=/cvmfs/sft.cern.ch/lcg/releases/gcc/11.2.0-8a51a/x86_64-centos7/bin/gfortran]
  ignore line: [Target: x86_64-pc-linux-gnu]
  ignore line: [Configured with: /workspace/build/contrib/gcc-11.2.0/src/gcc/11.2.0/configure --prefix=/workspace/lcgcmake-install/gcc/11.2.0/x86_64-centos7 --disable-nls --with-system-zlib --disable-multilib --enable-languages=all --with-gnu-ld --with-gnu-as --enable-__cxa_atexit --disable-libunwind-exceptions --enable-gnu-unique-object --enable-plugin --with-linker-hash-style=gnu --enable-linker-build-id --enable-libstdcxx-time=rt --enable-shared --disable-libgcj]
  ignore line: [Thread model: posix]
  ignore line: [Supported LTO compression algorithms: zlib]
  ignore line: [gcc version 11.2.0 (GCC) ]
  ignore line: [COLLECT_GCC_OPTIONS='-v' '-c' '-o' 'CMakeFiles/cmTC_5bb81.dir/CMakeFortranCompilerABI.F90.o' '-mtune=generic' '-march=x86-64' '-dumpdir' 'CMakeFiles/cmTC_5bb81.dir/']
  ignore line: [ /cvmfs/sft.cern.ch/lcg/releases/gcc/11.2.0-8a51a/x86_64-centos7/bin/../libexec/gcc/x86_64-pc-linux-gnu/11.2.0/f951 /cvmfs/atlas.cern.ch/repo/ATLASLocalRootBase/x86_64/Cmake/3.24.3/Linux-x86_64/share/cmake-3.24/Modules/CMakeFortranCompilerABI.F90 -cpp=/tmp/adimri/cchvvwsG.f90 -quiet -v -iprefix /cvmfs/sft.cern.ch/lcg/releases/gcc/11.2.0-8a51a/x86_64-centos7/bin/../lib/gcc/x86_64-pc-linux-gnu/11.2.0/ -isystem /cvmfs/sft.cern.ch/lcg/releases/gcc/11.2.0-8a51a/x86_64-centos7/include /cvmfs/atlas.cern.ch/repo/ATLASLocalRootBase/x86_64/Cmake/3.24.3/Linux-x86_64/share/cmake-3.24/Modules/CMakeFortranCompilerABI.F90 -quiet -dumpdir CMakeFiles/cmTC_5bb81.dir/ -dumpbase CMakeFortranCompilerABI.F90.F90 -dumpbase-ext .F90 -mtune=generic -march=x86-64 -version -fintrinsic-modules-path /cvmfs/sft.cern.ch/lcg/releases/gcc/11.2.0-8a51a/x86_64-centos7/bin/../lib/gcc/x86_64-pc-linux-gnu/11.2.0/finclude -o /tmp/adimri/cchinXaa.s]
  ignore line: [GNU Fortran (GCC) version 11.2.0 (x86_64-pc-linux-gnu)]
  ignore line: [	compiled by GNU C version 11.2.0  GMP version 6.1.0  MPFR version 3.1.6  MPC version 1.0.3  isl version isl-0.18-GMP]
  ignore line: []
  ignore line: [GGC heuristics: --param ggc-min-expand=100 --param ggc-min-heapsize=131072]
  ignore line: [ignoring nonexistent directory "/cvmfs/sft.cern.ch/lcg/releases/gcc/11.2.0-8a51a/x86_64-centos7/bin/../lib/gcc/x86_64-pc-linux-gnu/11.2.0/../../../../x86_64-pc-linux-gnu/include"]
  ignore line: [ignoring duplicate directory "/cvmfs/sft.cern.ch/lcg/releases/gcc/11.2.0-8a51a/x86_64-centos7/bin/../lib/gcc/../../lib/gcc/x86_64-pc-linux-gnu/11.2.0/include"]
  ignore line: [ignoring duplicate directory "/cvmfs/sft.cern.ch/lcg/releases/gcc/11.2.0-8a51a/x86_64-centos7/bin/../lib/gcc/../../lib/gcc/x86_64-pc-linux-gnu/11.2.0/include-fixed"]
  ignore line: [ignoring nonexistent directory "/cvmfs/sft.cern.ch/lcg/releases/gcc/11.2.0-8a51a/x86_64-centos7/bin/../lib/gcc/../../lib/gcc/x86_64-pc-linux-gnu/11.2.0/../../../../x86_64-pc-linux-gnu/include"]
  ignore line: [ignoring duplicate directory "/cvmfs/sft.cern.ch/lcg/releases/gcc/11.2.0-8a51a/x86_64-centos7/include"]
  ignore line: [  as it is a non-system directory that duplicates a system directory]
  ignore line: [#include "..." search starts here:]
  ignore line: [#include <...> search starts here:]
  ignore line: [ /cvmfs/sft.cern.ch/lcg/releases/gcc/11.2.0-8a51a/x86_64-centos7/bin/../lib/gcc/x86_64-pc-linux-gnu/11.2.0/finclude]
  ignore line: [ /cvmfs/sft.cern.ch/lcg/releases/gcc/11.2.0-8a51a/x86_64-centos7/bin/../lib/gcc/x86_64-pc-linux-gnu/11.2.0/include]
  ignore line: [ /cvmfs/sft.cern.ch/lcg/releases/gcc/11.2.0-8a51a/x86_64-centos7/bin/../lib/gcc/x86_64-pc-linux-gnu/11.2.0/include-fixed]
  ignore line: [ /usr/local/include]
  ignore line: [ /cvmfs/sft.cern.ch/lcg/releases/gcc/11.2.0-8a51a/x86_64-centos7/bin/../lib/gcc/../../include]
  ignore line: [ /usr/include]
  ignore line: [End of search list.]
  ignore line: [GNU Fortran2008 (GCC) version 11.2.0 (x86_64-pc-linux-gnu)]
  ignore line: [	compiled by GNU C version 11.2.0  GMP version 6.1.0  MPFR version 3.1.6  MPC version 1.0.3  isl version isl-0.18-GMP]
  ignore line: []
  ignore line: [GGC heuristics: --param ggc-min-expand=100 --param ggc-min-heapsize=131072]
  ignore line: [COLLECT_GCC_OPTIONS='-v' '-c' '-o' 'CMakeFiles/cmTC_5bb81.dir/CMakeFortranCompilerABI.F90.o' '-mtune=generic' '-march=x86-64' '-dumpdir' 'CMakeFiles/cmTC_5bb81.dir/']
  ignore line: [ as -v --64 -o CMakeFiles/cmTC_5bb81.dir/CMakeFortranCompilerABI.F90.o /tmp/adimri/cchinXaa.s]
  ignore line: [GNU assembler version 2.37 (x86_64-pc-linux-gnu) using BFD version (GNU Binutils) 2.37]
  ignore line: [COMPILER_PATH=/cvmfs/sft.cern.ch/lcg/releases/gcc/11.2.0-8a51a/x86_64-centos7/bin/../libexec/gcc/x86_64-pc-linux-gnu/11.2.0/:/cvmfs/sft.cern.ch/lcg/releases/gcc/11.2.0-8a51a/x86_64-centos7/bin/../libexec/gcc/:/cvmfs/sft.cern.ch/lcg/releases/gcc/11.2.0-8a51a/x86_64-centos7/]
  ignore line: [LIBRARY_PATH=/cvmfs/sft.cern.ch/lcg/releases/gcc/11.2.0-8a51a/x86_64-centos7/bin/../lib/gcc/x86_64-pc-linux-gnu/11.2.0/:/cvmfs/sft.cern.ch/lcg/releases/gcc/11.2.0-8a51a/x86_64-centos7/bin/../lib/gcc/:/cvmfs/sft.cern.ch/lcg/releases/gcc/11.2.0-8a51a/x86_64-centos7/bin/../lib/gcc/x86_64-pc-linux-gnu/11.2.0/../../../../lib64/:/lib/../lib64/:/usr/lib/../lib64/:/cvmfs/sft.cern.ch/lcg/releases/gcc/11.2.0-8a51a/x86_64-centos7/bin/../lib/gcc/x86_64-pc-linux-gnu/11.2.0/../../../:/lib/:/usr/lib/]
  ignore line: [COLLECT_GCC_OPTIONS='-v' '-c' '-o' 'CMakeFiles/cmTC_5bb81.dir/CMakeFortranCompilerABI.F90.o' '-mtune=generic' '-march=x86-64' '-dumpdir' 'CMakeFiles/cmTC_5bb81.dir/CMakeFortranCompilerABI.F90.']
  ignore line: [Linking Fortran executable cmTC_5bb81]
  ignore line: [/cvmfs/atlas.cern.ch/repo/ATLASLocalRootBase/x86_64/Cmake/3.24.3/Linux-x86_64/bin/cmake -E cmake_link_script CMakeFiles/cmTC_5bb81.dir/link.txt --verbose=1]
  ignore line: [/cvmfs/sft.cern.ch/lcg/releases/gcc/11.2.0-8a51a/x86_64-centos7/bin/gfortran  -v CMakeFiles/cmTC_5bb81.dir/CMakeFortranCompilerABI.F90.o -o cmTC_5bb81 ]
  ignore line: [Driving: /cvmfs/sft.cern.ch/lcg/releases/gcc/11.2.0-8a51a/x86_64-centos7/bin/gfortran -v CMakeFiles/cmTC_5bb81.dir/CMakeFortranCompilerABI.F90.o -o cmTC_5bb81 -l gfortran -l m -shared-libgcc]
  ignore line: [Using built-in specs.]
  ignore line: [COLLECT_GCC=/cvmfs/sft.cern.ch/lcg/releases/gcc/11.2.0-8a51a/x86_64-centos7/bin/gfortran]
  ignore line: [COLLECT_LTO_WRAPPER=/cvmfs/sft.cern.ch/lcg/releases/gcc/11.2.0-8a51a/x86_64-centos7/bin/../libexec/gcc/x86_64-pc-linux-gnu/11.2.0/lto-wrapper]
  ignore line: [Target: x86_64-pc-linux-gnu]
  ignore line: [Configured with: /workspace/build/contrib/gcc-11.2.0/src/gcc/11.2.0/configure --prefix=/workspace/lcgcmake-install/gcc/11.2.0/x86_64-centos7 --disable-nls --with-system-zlib --disable-multilib --enable-languages=all --with-gnu-ld --with-gnu-as --enable-__cxa_atexit --disable-libunwind-exceptions --enable-gnu-unique-object --enable-plugin --with-linker-hash-style=gnu --enable-linker-build-id --enable-libstdcxx-time=rt --enable-shared --disable-libgcj]
  ignore line: [Thread model: posix]
  ignore line: [Supported LTO compression algorithms: zlib]
  ignore line: [gcc version 11.2.0 (GCC) ]
  ignore line: [Reading specs from /cvmfs/sft.cern.ch/lcg/releases/gcc/11.2.0-8a51a/x86_64-centos7/bin/../lib/gcc/x86_64-pc-linux-gnu/11.2.0/../../../../lib64/libgfortran.spec]
  ignore line: [rename spec lib to liborig]
  ignore line: [COLLECT_GCC_OPTIONS='-v' '-o' 'cmTC_5bb81' '-shared-libgcc' '-mtune=generic' '-march=x86-64' '-dumpdir' 'cmTC_5bb81-']
  ignore line: [COMPILER_PATH=/cvmfs/sft.cern.ch/lcg/releases/gcc/11.2.0-8a51a/x86_64-centos7/bin/../libexec/gcc/x86_64-pc-linux-gnu/11.2.0/:/cvmfs/sft.cern.ch/lcg/releases/gcc/11.2.0-8a51a/x86_64-centos7/bin/../libexec/gcc/:/cvmfs/sft.cern.ch/lcg/releases/gcc/11.2.0-8a51a/x86_64-centos7/]
  ignore line: [LIBRARY_PATH=/cvmfs/sft.cern.ch/lcg/releases/gcc/11.2.0-8a51a/x86_64-centos7/bin/../lib/gcc/x86_64-pc-linux-gnu/11.2.0/:/cvmfs/sft.cern.ch/lcg/releases/gcc/11.2.0-8a51a/x86_64-centos7/bin/../lib/gcc/:/cvmfs/sft.cern.ch/lcg/releases/gcc/11.2.0-8a51a/x86_64-centos7/bin/../lib/gcc/x86_64-pc-linux-gnu/11.2.0/../../../../lib64/:/lib/../lib64/:/usr/lib/../lib64/:/cvmfs/sft.cern.ch/lcg/releases/gcc/11.2.0-8a51a/x86_64-centos7/bin/../lib/gcc/x86_64-pc-linux-gnu/11.2.0/../../../:/lib/:/usr/lib/]
  ignore line: [COLLECT_GCC_OPTIONS='-v' '-o' 'cmTC_5bb81' '-shared-libgcc' '-mtune=generic' '-march=x86-64' '-dumpdir' 'cmTC_5bb81.']
  link line: [ /cvmfs/sft.cern.ch/lcg/releases/gcc/11.2.0-8a51a/x86_64-centos7/bin/../libexec/gcc/x86_64-pc-linux-gnu/11.2.0/collect2 -plugin /cvmfs/sft.cern.ch/lcg/releases/gcc/11.2.0-8a51a/x86_64-centos7/bin/../libexec/gcc/x86_64-pc-linux-gnu/11.2.0/liblto_plugin.so -plugin-opt=/cvmfs/sft.cern.ch/lcg/releases/gcc/11.2.0-8a51a/x86_64-centos7/bin/../libexec/gcc/x86_64-pc-linux-gnu/11.2.0/lto-wrapper -plugin-opt=-fresolution=/tmp/adimri/ccSezi9J.res -plugin-opt=-pass-through=-lgcc_s -plugin-opt=-pass-through=-lgcc -plugin-opt=-pass-through=-lquadmath -plugin-opt=-pass-through=-lm -plugin-opt=-pass-through=-lgcc_s -plugin-opt=-pass-through=-lgcc -plugin-opt=-pass-through=-lc -plugin-opt=-pass-through=-lgcc_s -plugin-opt=-pass-through=-lgcc --build-id --eh-frame-hdr --hash-style=gnu -m elf_x86_64 -dynamic-linker /lib64/ld-linux-x86-64.so.2 -o cmTC_5bb81 /lib/../lib64/crt1.o /lib/../lib64/crti.o /cvmfs/sft.cern.ch/lcg/releases/gcc/11.2.0-8a51a/x86_64-centos7/bin/../lib/gcc/x86_64-pc-linux-gnu/11.2.0/crtbegin.o -L/cvmfs/sft.cern.ch/lcg/releases/gcc/11.2.0-8a51a/x86_64-centos7/bin/../lib/gcc/x86_64-pc-linux-gnu/11.2.0 -L/cvmfs/sft.cern.ch/lcg/releases/gcc/11.2.0-8a51a/x86_64-centos7/bin/../lib/gcc -L/cvmfs/sft.cern.ch/lcg/releases/gcc/11.2.0-8a51a/x86_64-centos7/bin/../lib/gcc/x86_64-pc-linux-gnu/11.2.0/../../../../lib64 -L/lib/../lib64 -L/usr/lib/../lib64 -L/cvmfs/sft.cern.ch/lcg/releases/gcc/11.2.0-8a51a/x86_64-centos7/bin/../lib/gcc/x86_64-pc-linux-gnu/11.2.0/../../.. CMakeFiles/cmTC_5bb81.dir/CMakeFortranCompilerABI.F90.o -lgfortran -lm -lgcc_s -lgcc -lquadmath -lm -lgcc_s -lgcc -lc -lgcc_s -lgcc /cvmfs/sft.cern.ch/lcg/releases/gcc/11.2.0-8a51a/x86_64-centos7/bin/../lib/gcc/x86_64-pc-linux-gnu/11.2.0/crtend.o /lib/../lib64/crtn.o]
    arg [/cvmfs/sft.cern.ch/lcg/releases/gcc/11.2.0-8a51a/x86_64-centos7/bin/../libexec/gcc/x86_64-pc-linux-gnu/11.2.0/collect2] ==> ignore
    arg [-plugin] ==> ignore
    arg [/cvmfs/sft.cern.ch/lcg/releases/gcc/11.2.0-8a51a/x86_64-centos7/bin/../libexec/gcc/x86_64-pc-linux-gnu/11.2.0/liblto_plugin.so] ==> ignore
    arg [-plugin-opt=/cvmfs/sft.cern.ch/lcg/releases/gcc/11.2.0-8a51a/x86_64-centos7/bin/../libexec/gcc/x86_64-pc-linux-gnu/11.2.0/lto-wrapper] ==> ignore
    arg [-plugin-opt=-fresolution=/tmp/adimri/ccSezi9J.res] ==> ignore
    arg [-plugin-opt=-pass-through=-lgcc_s] ==> ignore
    arg [-plugin-opt=-pass-through=-lgcc] ==> ignore
    arg [-plugin-opt=-pass-through=-lquadmath] ==> ignore
    arg [-plugin-opt=-pass-through=-lm] ==> ignore
    arg [-plugin-opt=-pass-through=-lgcc_s] ==> ignore
    arg [-plugin-opt=-pass-through=-lgcc] ==> ignore
    arg [-plugin-opt=-pass-through=-lc] ==> ignore
    arg [-plugin-opt=-pass-through=-lgcc_s] ==> ignore
    arg [-plugin-opt=-pass-through=-lgcc] ==> ignore
    arg [--build-id] ==> ignore
    arg [--eh-frame-hdr] ==> ignore
    arg [--hash-style=gnu] ==> ignore
    arg [-m] ==> ignore
    arg [elf_x86_64] ==> ignore
    arg [-dynamic-linker] ==> ignore
    arg [/lib64/ld-linux-x86-64.so.2] ==> ignore
    arg [-o] ==> ignore
    arg [cmTC_5bb81] ==> ignore
    arg [/lib/../lib64/crt1.o] ==> obj [/lib/../lib64/crt1.o]
    arg [/lib/../lib64/crti.o] ==> obj [/lib/../lib64/crti.o]
    arg [/cvmfs/sft.cern.ch/lcg/releases/gcc/11.2.0-8a51a/x86_64-centos7/bin/../lib/gcc/x86_64-pc-linux-gnu/11.2.0/crtbegin.o] ==> obj [/cvmfs/sft.cern.ch/lcg/releases/gcc/11.2.0-8a51a/x86_64-centos7/bin/../lib/gcc/x86_64-pc-linux-gnu/11.2.0/crtbegin.o]
    arg [-L/cvmfs/sft.cern.ch/lcg/releases/gcc/11.2.0-8a51a/x86_64-centos7/bin/../lib/gcc/x86_64-pc-linux-gnu/11.2.0] ==> dir [/cvmfs/sft.cern.ch/lcg/releases/gcc/11.2.0-8a51a/x86_64-centos7/bin/../lib/gcc/x86_64-pc-linux-gnu/11.2.0]
    arg [-L/cvmfs/sft.cern.ch/lcg/releases/gcc/11.2.0-8a51a/x86_64-centos7/bin/../lib/gcc] ==> dir [/cvmfs/sft.cern.ch/lcg/releases/gcc/11.2.0-8a51a/x86_64-centos7/bin/../lib/gcc]
    arg [-L/cvmfs/sft.cern.ch/lcg/releases/gcc/11.2.0-8a51a/x86_64-centos7/bin/../lib/gcc/x86_64-pc-linux-gnu/11.2.0/../../../../lib64] ==> dir [/cvmfs/sft.cern.ch/lcg/releases/gcc/11.2.0-8a51a/x86_64-centos7/bin/../lib/gcc/x86_64-pc-linux-gnu/11.2.0/../../../../lib64]
    arg [-L/lib/../lib64] ==> dir [/lib/../lib64]
    arg [-L/usr/lib/../lib64] ==> dir [/usr/lib/../lib64]
    arg [-L/cvmfs/sft.cern.ch/lcg/releases/gcc/11.2.0-8a51a/x86_64-centos7/bin/../lib/gcc/x86_64-pc-linux-gnu/11.2.0/../../..] ==> dir [/cvmfs/sft.cern.ch/lcg/releases/gcc/11.2.0-8a51a/x86_64-centos7/bin/../lib/gcc/x86_64-pc-linux-gnu/11.2.0/../../..]
    arg [CMakeFiles/cmTC_5bb81.dir/CMakeFortranCompilerABI.F90.o] ==> ignore
    arg [-lgfortran] ==> lib [gfortran]
    arg [-lm] ==> lib [m]
    arg [-lgcc_s] ==> lib [gcc_s]
    arg [-lgcc] ==> lib [gcc]
    arg [-lquadmath] ==> lib [quadmath]
    arg [-lm] ==> lib [m]
    arg [-lgcc_s] ==> lib [gcc_s]
    arg [-lgcc] ==> lib [gcc]
    arg [-lc] ==> lib [c]
    arg [-lgcc_s] ==> lib [gcc_s]
    arg [-lgcc] ==> lib [gcc]
    arg [/cvmfs/sft.cern.ch/lcg/releases/gcc/11.2.0-8a51a/x86_64-centos7/bin/../lib/gcc/x86_64-pc-linux-gnu/11.2.0/crtend.o] ==> obj [/cvmfs/sft.cern.ch/lcg/releases/gcc/11.2.0-8a51a/x86_64-centos7/bin/../lib/gcc/x86_64-pc-linux-gnu/11.2.0/crtend.o]
    arg [/lib/../lib64/crtn.o] ==> obj [/lib/../lib64/crtn.o]
  collapse obj [/lib/../lib64/crt1.o] ==> [/lib64/crt1.o]
  collapse obj [/lib/../lib64/crti.o] ==> [/lib64/crti.o]
  collapse obj [/cvmfs/sft.cern.ch/lcg/releases/gcc/11.2.0-8a51a/x86_64-centos7/bin/../lib/gcc/x86_64-pc-linux-gnu/11.2.0/crtbegin.o] ==> [/cvmfs/sft.cern.ch/lcg/releases/gcc/11.2.0-8a51a/x86_64-centos7/lib/gcc/x86_64-pc-linux-gnu/11.2.0/crtbegin.o]
  collapse obj [/cvmfs/sft.cern.ch/lcg/releases/gcc/11.2.0-8a51a/x86_64-centos7/bin/../lib/gcc/x86_64-pc-linux-gnu/11.2.0/crtend.o] ==> [/cvmfs/sft.cern.ch/lcg/releases/gcc/11.2.0-8a51a/x86_64-centos7/lib/gcc/x86_64-pc-linux-gnu/11.2.0/crtend.o]
  collapse obj [/lib/../lib64/crtn.o] ==> [/lib64/crtn.o]
  collapse library dir [/cvmfs/sft.cern.ch/lcg/releases/gcc/11.2.0-8a51a/x86_64-centos7/bin/../lib/gcc/x86_64-pc-linux-gnu/11.2.0] ==> [/cvmfs/sft.cern.ch/lcg/releases/gcc/11.2.0-8a51a/x86_64-centos7/lib/gcc/x86_64-pc-linux-gnu/11.2.0]
  collapse library dir [/cvmfs/sft.cern.ch/lcg/releases/gcc/11.2.0-8a51a/x86_64-centos7/bin/../lib/gcc] ==> [/cvmfs/sft.cern.ch/lcg/releases/gcc/11.2.0-8a51a/x86_64-centos7/lib/gcc]
  collapse library dir [/cvmfs/sft.cern.ch/lcg/releases/gcc/11.2.0-8a51a/x86_64-centos7/bin/../lib/gcc/x86_64-pc-linux-gnu/11.2.0/../../../../lib64] ==> [/cvmfs/sft.cern.ch/lcg/releases/gcc/11.2.0-8a51a/x86_64-centos7/lib64]
  collapse library dir [/lib/../lib64] ==> [/lib64]
  collapse library dir [/usr/lib/../lib64] ==> [/usr/lib64]
  collapse library dir [/cvmfs/sft.cern.ch/lcg/releases/gcc/11.2.0-8a51a/x86_64-centos7/bin/../lib/gcc/x86_64-pc-linux-gnu/11.2.0/../../..] ==> [/cvmfs/sft.cern.ch/lcg/releases/gcc/11.2.0-8a51a/x86_64-centos7/lib]
  implicit libs: [gfortran;m;gcc_s;gcc;quadmath;m;gcc_s;gcc;c;gcc_s;gcc]
  implicit objs: [/lib64/crt1.o;/lib64/crti.o;/cvmfs/sft.cern.ch/lcg/releases/gcc/11.2.0-8a51a/x86_64-centos7/lib/gcc/x86_64-pc-linux-gnu/11.2.0/crtbegin.o;/cvmfs/sft.cern.ch/lcg/releases/gcc/11.2.0-8a51a/x86_64-centos7/lib/gcc/x86_64-pc-linux-gnu/11.2.0/crtend.o;/lib64/crtn.o]
  implicit dirs: [/cvmfs/sft.cern.ch/lcg/releases/gcc/11.2.0-8a51a/x86_64-centos7/lib/gcc/x86_64-pc-linux-gnu/11.2.0;/cvmfs/sft.cern.ch/lcg/releases/gcc/11.2.0-8a51a/x86_64-centos7/lib/gcc;/cvmfs/sft.cern.ch/lcg/releases/gcc/11.2.0-8a51a/x86_64-centos7/lib64;/lib64;/usr/lib64;/cvmfs/sft.cern.ch/lcg/releases/gcc/11.2.0-8a51a/x86_64-centos7/lib]
  implicit fwks: []


