data23_hi.00461633.physics_HardProbes.merge.AOD.f1393_m2203
data23_hi.00461635.physics_HardProbes.merge.AOD.f1393_m2203
data23_hi.00461636.physics_HardProbes.merge.AOD.f1393_m2203
data23_hi.00461641.physics_HardProbes.merge.AOD.f1393_m2203
data23_hi.00461655.physics_HardProbes.merge.AOD.f1393_m2203
data23_hi.00461669.physics_HardProbes.merge.AOD.f1393_m2203
data23_hi.00461674.physics_HardProbes.merge.AOD.f1393_m2203
